{
    "hybrid": {
        "namespace": "hybrid-bar",
        "r": 10,
        "g": 10,
        "b": 10,
        "a": 1.0
    },
    "left-label_workspace": {
        "command": "hyprctl -j activewindow | jq '.workspace.id'",
        "tooltip": "active workspace",
        "update_rate": 1000
    },
    "centered-label_active_window": {
        "command": "hyprctl -j activewindow | jq '.title'",
        "tooltip": "active window",
        "update_rate": 1000
    },
    "right-label_date": {
        "command": "date",
        "tooltip": "date",
        "update_rate": 10000
    }
}
